hdl/tests-svut/secv_testbench.vcd
$date
	Fri Sep 29 01:01:16 2023
$end
$version
	Icarus Verilog
$end
$timescale
	1s
$end
$scope module secv_testbench $end
$var wire 4 ! state_dbg [3:0] $end
$var wire 4 " op_dbg [3:0] $end
$var wire 32 # ir_dbg [31:0] $end
$var wire 32 $ inst_dbg [31:0] $end
$var wire 1 % imem_stb_o $end
$var wire 4 & imem_sel_o [3:0] $end
$var wire 32 ' imem_dat_i [31:0] $end
$var wire 1 ( imem_cyc_o $end
$var wire 8 ) imem_adr_o [7:0] $end
$var wire 1 * imem_ack_i $end
$var wire 67 + funit_out_dbg [66:0] $end
$var wire 133 , funit_in_dbg [132:0] $end
$var wire 32 - funit_dbg [31:0] $end
$var wire 1 . dmem_we_o $end
$var wire 1 / dmem_stb_o $end
$var wire 8 0 dmem_sel_o [7:0] $end
$var wire 64 1 dmem_dat_o [63:0] $end
$var wire 64 2 dmem_dat_i [63:0] $end
$var wire 1 3 dmem_cyc_o $end
$var wire 8 4 dmem_adr_o [7:0] $end
$var wire 1 5 dmem_ack_i $end
$var parameter 32 6 DADR_WIDTH $end
$var parameter 32 7 DSEL_WIDTH $end
$var parameter 32 8 IADR_WIDTH $end
$var parameter 32 9 ILEN $end
$var parameter 32 : ISEL_WIDTH $end
$var parameter 32 ; XLEN $end
$var reg 1 < clk_i $end
$var reg 1 = rst_i $end
$var integer 32 > svut_critical [31:0] $end
$var integer 32 ? svut_error [31:0] $end
$var integer 32 @ svut_error_total [31:0] $end
$var integer 32 A svut_nb_test [31:0] $end
$var integer 32 B svut_nb_test_success [31:0] $end
$var integer 32 C svut_status [31:0] $end
$var integer 32 D svut_test_number [31:0] $end
$var integer 32 E svut_warning [31:0] $end
$scope module dut $end
$var wire 1 < clk_i $end
$var wire 32 F funit_dbg [31:0] $end
$var wire 133 G funit_in_dbg [132:0] $end
$var wire 67 H funit_out [66:0] $end
$var wire 67 I funit_out_dbg [66:0] $end
$var wire 32 J inst [31:0] $end
$var wire 32 K inst_dbg [31:0] $end
$var wire 32 L ir_dbg [31:0] $end
$var wire 4 M op_dbg [3:0] $end
$var wire 1 = rst_i $end
$var wire 2 N src1_sel_dbg [1:0] $end
$var wire 2 O src2_sel_dbg [1:0] $end
$var wire 4 P state_dbg [3:0] $end
$var wire 2 Q src2_sel [1:0] $end
$var wire 2 R src1_sel [1:0] $end
$var wire 64 S rs2_dat [63:0] $end
$var wire 5 T rs2_adr [4:0] $end
$var wire 64 U rs1_dat [63:0] $end
$var wire 5 V rs1_adr [4:0] $end
$var wire 2 W rd_sel [1:0] $end
$var wire 5 X rd_adr [4:0] $end
$var wire 2 Y pc_sel [1:0] $end
$var wire 7 Z opcode [6:0] $end
$var wire 64 [ nxtpc [63:0] $end
$var wire 4 \ mem_op [3:0] $end
$var wire 1 ] mem_dec_err $end
$var wire 3 ^ imm_sel [2:0] $end
$var wire 32 _ imem_dat_i [31:0] $end
$var wire 1 * imem_ack_i $end
$var wire 32 ` funit [31:0] $end
$var wire 7 a funct7 [6:0] $end
$var wire 3 b funct3 [2:0] $end
$var wire 1 . dmem_we_o $end
$var wire 1 / dmem_stb_o $end
$var wire 8 c dmem_sel_o [7:0] $end
$var wire 64 d dmem_dat_o [63:0] $end
$var wire 64 e dmem_dat_i [63:0] $end
$var wire 1 3 dmem_cyc_o $end
$var wire 8 f dmem_adr_o [7:0] $end
$var wire 1 5 dmem_ack_i $end
$var wire 1 g dec_err $end
$var wire 64 h brn_target [63:0] $end
$var wire 1 i brn_take $end
$var wire 1 j brn_err $end
$var wire 4 k alu_op [3:0] $end
$var wire 1 l alu_dec_err $end
$var parameter 32 m DADR_WIDTH $end
$var parameter 32 n DSEL_WIDTH $end
$var parameter 32 o IADR_WIDTH $end
$var parameter 32 p ILEN $end
$var parameter 32 q ISEL_WIDTH $end
$var parameter 32 r XLEN $end
$var reg 133 s funit_in [132:0] $end
$var reg 8 t imem_adr_o [7:0] $end
$var reg 1 ( imem_cyc_o $end
$var reg 4 u imem_sel_o [3:0] $end
$var reg 1 % imem_stb_o $end
$var reg 64 v imm [63:0] $end
$var reg 32 w ir [31:0] $end
$var reg 32 x ir_next [31:0] $end
$var reg 64 y pc [63:0] $end
$var reg 64 z pc_next [63:0] $end
$var reg 64 { rd_dat [63:0] $end
$var reg 1 | rd_wb $end
$var reg 64 } src1 [63:0] $end
$var reg 64 ~ src2 [63:0] $end
$var reg 4 !" state [3:0] $end
$var reg 4 "" state_next [3:0] $end
$var reg 64 #" wbstage_pc [63:0] $end
$var reg 64 $" wbstage_rd_dat [63:0] $end
$var reg 4 %" funit_op [3:0] $end
$scope module alu0 $end
$var wire 133 &" fu_i [132:0] $end
$var wire 64 '" res [63:0] $end
$var wire 1 (" err $end
$var parameter 32 )" XLEN $end
$var reg 67 *" fu_o [66:0] $end
$scope module alu0 $end
$var wire 64 +" a_i [63:0] $end
$var wire 64 ," b_i [63:0] $end
$var wire 4 -" op_i [3:0] $end
$var wire 32 ." b32 [31:0] $end
$var wire 32 /" a32 [31:0] $end
$var parameter 32 0" XLEN $end
$var reg 1 (" err_o $end
$var reg 64 1" res_o [63:0] $end
$upscope $end
$upscope $end
$scope module alu_dec0 $end
$var wire 1 l err_o $end
$var wire 32 2" inst_i [31:0] $end
$var wire 4 3" op_o [3:0] $end
$var wire 1 4" opcode_op_imm_32 $end
$var wire 1 5" opcode_op_imm $end
$var wire 1 6" opcode_op_32 $end
$var wire 1 7" opcode_op $end
$var wire 7 8" opcode [6:0] $end
$var wire 7 9" funct7 [6:0] $end
$var wire 3 :" funct3 [2:0] $end
$var reg 1 ;" err $end
$var reg 4 <" op [3:0] $end
$scope begin decode_alu $end
$upscope $end
$upscope $end
$scope module brn0 $end
$var wire 1 j err_o $end
$var wire 1 i take_o $end
$var wire 64 =" rs2_i [63:0] $end
$var wire 64 >" rs1_i [63:0] $end
$var wire 3 ?" funct3_i [2:0] $end
$var parameter 32 @" XLEN $end
$var reg 1 A" err $end
$var reg 1 B" take $end
$upscope $end
$scope module dec0 $end
$var wire 1 g err_o $end
$var wire 3 C" funct3_o [2:0] $end
$var wire 7 D" funct7_o [6:0] $end
$var wire 32 E" funit_o [31:0] $end
$var wire 3 F" imm_sel_o [2:0] $end
$var wire 32 G" inst_i [31:0] $end
$var wire 7 H" opcode_o [6:0] $end
$var wire 2 I" pc_sel_o [1:0] $end
$var wire 2 J" rd_sel_o [1:0] $end
$var wire 2 K" src1_sel_o [1:0] $end
$var wire 2 L" src2_sel_o [1:0] $end
$var wire 5 M" rs2_adr_o [4:0] $end
$var wire 5 N" rs1_adr_o [4:0] $end
$var wire 5 O" rd_adr_o [4:0] $end
$var wire 7 P" opcode [6:0] $end
$var wire 7 Q" funct7 [6:0] $end
$var wire 3 R" funct3 [2:0] $end
$var reg 1 S" err $end
$var reg 3 T" imm_sel [2:0] $end
$var reg 2 U" pc_sel [1:0] $end
$var reg 2 V" rd_sel [1:0] $end
$var reg 2 W" src1_sel [1:0] $end
$var reg 2 X" src2_sel [1:0] $end
$var integer 32 Y" funit [31:0] $end
$scope begin decode_op $end
$upscope $end
$upscope $end
$scope module gpr0 $end
$var wire 1 < clk_i $end
$var wire 5 Z" rd_adr_i [4:0] $end
$var wire 64 [" rd_dat_i [63:0] $end
$var wire 1 | rd_wb_i $end
$var wire 5 \" rs1_adr_i [4:0] $end
$var wire 5 ]" rs2_adr_i [4:0] $end
$var wire 1 = rst_i $end
$var wire 64 ^" rs2_dat_o [63:0] $end
$var wire 64 _" rs1_dat_o [63:0] $end
$var parameter 32 `" XLEN $end
$scope begin $ivl_for_loop5 $end
$var integer 32 a" idx [31:0] $end
$upscope $end
$upscope $end
$scope module mem0 $end
$var wire 133 b" fu_i [132:0] $end
$var wire 64 c" dmem_dat_i [63:0] $end
$var wire 1 5 dmem_ack_i $end
$var parameter 32 d" ADR_WIDTH $end
$var parameter 32 e" SEL_WIDTH $end
$var parameter 32 f" XLEN $end
$var reg 8 g" dmem_adr_o [7:0] $end
$var reg 1 3 dmem_cyc_o $end
$var reg 64 h" dmem_dat [63:0] $end
$var reg 64 i" dmem_dat_o [63:0] $end
$var reg 8 j" dmem_sel_o [7:0] $end
$var reg 1 / dmem_stb_o $end
$var reg 1 . dmem_we_o $end
$var reg 1 k" err $end
$var reg 67 l" fu_o [66:0] $end
$var reg 1 m" load $end
$var reg 4 n" op [3:0] $end
$scope begin mem_access $end
$upscope $end
$upscope $end
$scope module mem_dec0 $end
$var wire 1 ] err_o $end
$var wire 32 o" inst_i [31:0] $end
$var wire 4 p" op_o [3:0] $end
$var wire 1 q" opcode_op_imm_32 $end
$var wire 1 r" opcode_op_imm $end
$var wire 1 s" opcode_op_32 $end
$var wire 1 t" opcode_op $end
$var wire 7 u" opcode [6:0] $end
$var wire 7 v" funct7 [6:0] $end
$var wire 3 w" funct3 [2:0] $end
$var reg 1 x" err $end
$var reg 4 y" op [3:0] $end
$scope begin decode_alu $end
$upscope $end
$upscope $end
$scope begin decoder_mux $end
$upscope $end
$scope begin fsm_regs $end
$upscope $end
$scope begin imm_mux $end
$upscope $end
$scope begin main_fsm $end
$upscope $end
$scope begin rd_mux $end
$upscope $end
$scope begin src1_mux $end
$upscope $end
$scope begin src2_mux $end
$upscope $end
$scope begin wbstage_pc_mux $end
$upscope $end
$upscope $end
$scope module ram $end
$var wire 8 z" adr_i [7:0] $end
$var wire 1 < clk_i $end
$var wire 1 3 cyc_i $end
$var wire 64 {" dat_i [63:0] $end
$var wire 1 = rst_i $end
$var wire 8 |" sel_i [7:0] $end
$var wire 1 / stb_i $end
$var wire 1 . we_i $end
$var parameter 32 }" ADDR_WIDTH $end
$var parameter 32 ~" DATA_WIDTH $end
$var parameter 1 !# RESET_MEM $end
$var parameter 32 "# SEL_WIDTH $end
$var reg 1 5 ack_o $end
$var reg 64 ## dat_o [63:0] $end
$scope begin $ivl_for_loop1 $end
$var integer 32 $# idx [31:0] $end
$upscope $end
$scope begin $ivl_for_loop2 $end
$var integer 32 %# idx [31:0] $end
$upscope $end
$scope begin $ivl_for_loop3 $end
$var integer 32 &# byte_idx [31:0] $end
$upscope $end
$scope begin $ivl_for_loop4 $end
$var integer 32 '# byte_idx [31:0] $end
$upscope $end
$upscope $end
$scope module rom $end
$var wire 8 (# adr_i [7:0] $end
$var wire 1 < clk_i $end
$var wire 1 ( cyc_i $end
$var wire 1 = rst_i $end
$var wire 4 )# sel_i [3:0] $end
$var wire 1 % stb_i $end
$var parameter 32 *# ADDR_WIDTH $end
$var parameter 32 +# DATA_WIDTH $end
$var parameter 32 ,# SEL_WIDTH $end
$var reg 1 * ack_o $end
$var reg 32 -# dat_o [31:0] $end
$scope begin $ivl_for_loop0 $end
$var integer 32 .# byte_idx [31:0] $end
$upscope $end
$upscope $end
$scope task reset $end
$upscope $end
$scope task run $end
$var reg 1 /# msg $end
$upscope $end
$scope task setup $end
$var reg 1 0# msg $end
$upscope $end
$scope task teardown $end
$var reg 1 1# msg $end
$upscope $end
$upscope $end
$enddefinitions $end
$comment Show the parameter values. $end
$dumpall
b100 ,#
b100000 +#
b1000 *#
b1000 "#
1!#
b1000000 ~"
b1000 }"
b1000000 f"
b1000 e"
b1000 d"
b1000000 `"
b1000000 @"
b1000000 0"
b1000000 )"
b1000000 r
b100 q
b100000 p
b1000 o
b1000 n
b1000 m
b1000000 ;
b100 :
b100000 9
b1000 8
b1000 7
b1000 6
$end
#0
$dumpvars
x1#
00#
0/#
b0 .#
bx -#
b0 )#
b0 (#
b0 '#
b0 &#
b0 %#
b100000000 $#
bx ##
b0 |"
b0 {"
b0 z"
b0 y"
1x"
bx w"
bx v"
bx u"
xt"
xs"
xr"
xq"
b0 p"
bx o"
bx n"
0m"
b0 l"
0k"
b0 j"
b0 i"
b0 h"
b0 g"
bx c"
bx b"
b0 a"
bx _"
bx ^"
bx ]"
bx \"
b0 ["
bx Z"
b0 Y"
b0 X"
b0 W"
b0 V"
b0 U"
b0 T"
1S"
bx R"
bx Q"
bx P"
bx O"
bx N"
bx M"
b0 L"
b0 K"
b0 J"
b0 I"
bx H"
bx G"
b0 F"
b0 E"
bx D"
bx C"
0B"
1A"
bx ?"
bx >"
bx ="
b0 <"
1;"
bx :"
bx 9"
bx 8"
x7"
x6"
x5"
x4"
b0 3"
bx 2"
b0 1"
bx /"
bx ."
b0 -"
bx ,"
bx +"
b0 *"
1("
b0 '"
bx &"
b0 %"
b0 $"
bx #"
bx ""
bx !"
b0 ~
b0 }
0|
b0 {
bx z
bx y
bx x
bx w
b0 v
b0 u
b0 t
b0 s
1l
b0 k
1j
0i
bx h
1g
b0 f
bx e
b0 d
b0 c
bx b
bx a
b0 `
bx _
b0 ^
1]
b0 \
bx [
bx Z
b0 Y
bx X
b0 W
bx V
bx U
bx T
bx S
b0 R
b0 Q
bx P
b0 O
b0 N
b0 M
bx L
bx K
bx J
bz I
bz H
b0 G
b0 F
b0 E
b0 D
b0 C
b0 B
b0 A
b0 @
b0 ?
b0 >
x=
0<
x5
b0 4
03
bx 2
b0 1
b0 0
0/
0.
b0 -
b0 ,
bz +
x*
b0 )
0(
bx '
b0 &
0%
bx $
bx #
b0 "
bx !
$end
#2
b100 -"
b0 /"
0("
b0 ."
b0 +"
b0 ,"
1i
b10000000000000000000000000000000000000000000000000000000000000000000000000000000000000000000000000000000000000000000000000000000000 ,
b10000000000000000000000000000000000000000000000000000000000000000000000000000000000000000000000000000000000000000000000000000000000 G
b10000000000000000000000000000000000000000000000000000000000000000000000000000000000000000000000000000000000000000000000000000000000 s
b10000000000000000000000000000000000000000000000000000000000000000000000000000000000000000000000000000000000000000000000000000000000 &"
1B"
0j
0A"
b0 U
b0 >"
b0 _"
b0 S
b0 ="
b0 ^"
b100 "
b100 M
b100 %"
b100 k
b100 3"
b100 <"
0l
0;"
b0 :"
b0 9"
b1 W
b1 J"
b1 V"
b1 ^
b1 F"
b1 T"
b10 O
b10 Q
b10 L"
b10 X"
b1 N
b1 R
b1 K"
b1 W"
b0 +
b0 I
b0 H
b1 -
b1 F
b1 `
b1 E"
b1 Y"
0g
0S"
b0 b
b0 ?"
b0 C"
b0 R"
b0 a
b0 D"
b0 Q"
b0 V
b0 N"
b0 \"
b0 T
b0 M"
b0 ]"
b0 X
b0 O"
b0 Z"
b100 \
b100 p"
b100 y"
0]
0x"
b0 w"
b0 v"
07"
15"
06"
04"
b10011 8"
b10011 Z
b10011 H"
b10011 P"
0t"
1r"
0s"
0q"
b10011 u"
b0 h
b100 #"
b10011 x
b0 z
b1 ""
b10011 #
b10011 L
b10011 $
b10011 K
b10011 J
b10011 2"
b10011 G"
b10011 o"
b10011 w
b100 [
b0 y
b0 !
b0 P
b0 !"
0*
b0 '
b0 _
b0 -#
05
b0 2
b0 e
b0 c"
b0 ##
b100000000 %#
b100000 a"
1=
1<
#4
0<
#6
b1111 &
b1111 u
b1111 )#
1%
1(
b10000000000000000000000000000000000000000000000000000000000000000000000000000000000000000000000000000000000000000000000000000000000 ,
b10000000000000000000000000000000000000000000000000000000000000000000000000000000000000000000000000000000000000000000000000000000000 G
b10000000000000000000000000000000000000000000000000000000000000000000000000000000000000000000000000000000000000000000000000000000000 s
b1 !
b1 P
b1 !"
b100000000 %#
b100000 a"
b1 A
0=
1<
#8
0<
#10
b10 ""
b1100101000000000000010010011 x
b10000000000000000000000000000000000000000000000000000000000000000000000000000000000000000000000000000000000000000000000000000000000 ,
b10000000000000000000000000000000000000000000000000000000000000000000000000000000000000000000000000000000000000000000000000000000000 G
b10000000000000000000000000000000000000000000000000000000000000000000000000000000000000000000000000000000000000000000000000000000000 s
b1111 &
b1111 u
b1111 )#
1%
1(
1*
b1100101000000000000010010011 '
b1100101000000000000010010011 _
b1100101000000000000010010011 -#
b100 .#
1<
#12
0<
#14
1("
b0 -"
b0 '"
b0 1"
b11001010 ."
b11001010 ,"
b0 "
b0 M
b0 %"
b11001010 &"
1l
1;"
b0 k
b0 3"
b0 <"
1]
1x"
b0 \
b0 p"
b0 y"
b110 9"
b110 a
b110 D"
b110 Q"
b1010 T
b1010 M"
b1010 ]"
b1 X
b1 O"
b1 Z"
b110 v"
b11001010 ~
b11001010 v
b11 ""
b11001010 ,
b11001010 G
b11001010 s
b0 &
b0 u
b0 )#
0%
0(
b1100101000000000000010010011 #
b1100101000000000000010010011 L
b1100101000000000000010010011 $
b1100101000000000000010010011 K
b1100101000000000000010010011 J
b1100101000000000000010010011 2"
b1100101000000000000010010011 G"
b1100101000000000000010010011 o"
b1100101000000000000010010011 w
b10 !
b10 P
b10 !"
1*
b1100101000000000000010010011 '
b1100101000000000000010010011 _
b1100101000000000000010010011 -#
b100 .#
1<
#16
0<
#18
b100 ""
b1100000000000000000000000000000000000000000000000000000000000000000 *"
b1100000000000000000000000000000000000000000000000000000000000000000 +
b1100000000000000000000000000000000000000000000000000000000000000000 I
b1100000000000000000000000000000000000000000000000000000000000000000 H
b1000000000000000000000000000000000000000000000000000000000000000000000000000000000000000000000000000000000000000000000000000011001010 &"
b1000000000000000000000000000000000000000000000000000000000000000000000000000000000000000000000000000000000000000000000000000011001010 ,
b1000000000000000000000000000000000000000000000000000000000000000000000000000000000000000000000000000000000000000000000000000011001010 G
b1000000000000000000000000000000000000000000000000000000000000000000000000000000000000000000000000000000000000000000000000000011001010 s
b11 !
b11 P
b11 !"
0*
b0 '
b0 _
b0 -#
1<
#20
0<
#22
b1 ""
b100 z
b1000000000000000000000000000000000000000000000000000000000000000000000000000000000000000000000000000000000000000000000000000011001010 ,
b1000000000000000000000000000000000000000000000000000000000000000000000000000000000000000000000000000000000000000000000000000011001010 G
b1000000000000000000000000000000000000000000000000000000000000000000000000000000000000000000000000000000000000000000000000000011001010 s
b100 !
b100 P
b100 !"
1<
#24
0<
#26
b0 *"
b0 +
b0 I
b0 H
b11001010 &"
b1000 #"
b1 )
b1 t
b1 (#
b1111 &
b1111 u
b1111 )#
1%
1(
b11001010 ,
b11001010 G
b11001010 s
b1000 [
b100 y
b1 !
b1 P
b1 !"
1<
#28
0<
#30
b10 ""
b100000001001000010010011 x
b11001010 ,
b11001010 G
b11001010 s
b1111 &
b1111 u
b1111 )#
b1 )
b1 t
b1 (#
1%
1(
1*
b100000001001000010010011 '
b100000001001000010010011 _
b100000001001000010010011 -#
b100 .#
1<
#32
0<
#34
b1000 -"
0("
b1000 ."
b1000 h
b1000 ,"
0i
b1000 "
b1000 M
b1000 %"
b100000000000000000000000000000000000000000000000000000000000000000000000000000000000000000000000000000000000000000000000000000001000 &"
b1000 k
b1000 3"
b1000 <"
0l
0;"
0B"
b1000 \
b1000 p"
b1000 y"
0]
0x"
b1 :"
b0 9"
b1 b
b1 ?"
b1 C"
b1 R"
b0 a
b0 D"
b0 Q"
b1 V
b1 N"
b1 \"
b1000 T
b1000 M"
b1000 ]"
b1 w"
b0 v"
b1000 ~
b1000 v
b11 ""
b100000000000000000000000000000000000000000000000000000000000000000000000000000000000000000000000000000000000000000000000000000001000 ,
b100000000000000000000000000000000000000000000000000000000000000000000000000000000000000000000000000000000000000000000000000000001000 G
b100000000000000000000000000000000000000000000000000000000000000000000000000000000000000000000000000000000000000000000000000000001000 s
b0 &
b0 u
b0 )#
b0 )
b0 t
b0 (#
0%
0(
b100000001001000010010011 #
b100000001001000010010011 L
b100000001001000010010011 $
b100000001001000010010011 K
b100000001001000010010011 J
b100000001001000010010011 2"
b100000001001000010010011 G"
b100000001001000010010011 o"
b100000001001000010010011 w
b10 !
b10 P
b10 !"
1*
b100000001001000010010011 '
b100000001001000010010011 _
b100000001001000010010011 -#
b100 .#
1<
#36
0<
#38
b100 ""
b1000000000000000000000000000000000000000000000000000000000000000001 *"
b1000000000000000000000000000000000000000000000000000000000000000001 +
b1000000000000000000000000000000000000000000000000000000000000000001 I
b1000000000000000000000000000000000000000000000000000000000000000001 H
b1100000000000000000000000000000000000000000000000000000000000000000000000000000000000000000000000000000000000000000000000000000001000 &"
b1100000000000000000000000000000000000000000000000000000000000000000000000000000000000000000000000000000000000000000000000000000001000 ,
b1100000000000000000000000000000000000000000000000000000000000000000000000000000000000000000000000000000000000000000000000000000001000 G
b1100000000000000000000000000000000000000000000000000000000000000000000000000000000000000000000000000000000000000000000000000000001000 s
b11 !
b11 P
b11 !"
0*
b0 '
b0 _
b0 -#
1<
#40
0<
#42
1|
b1 ""
b1000 z
b1100000000000000000000000000000000000000000000000000000000000000000000000000000000000000000000000000000000000000000000000000000001000 ,
b1100000000000000000000000000000000000000000000000000000000000000000000000000000000000000000000000000000000000000000000000000000001000 G
b1100000000000000000000000000000000000000000000000000000000000000000000000000000000000000000000000000000000000000000000000000000001000 s
b100 !
b100 P
b100 !"
1<
#44
0<
#46
b0 *"
b0 +
b0 I
b0 H
b100000000000000000000000000000000000000000000000000000000000000000000000000000000000000000000000000000000000000000000000000000001000 &"
b1100 h
b1100 #"
b10 )
b10 t
b10 (#
b1111 &
b1111 u
b1111 )#
1%
1(
b100000000000000000000000000000000000000000000000000000000000000000000000000000000000000000000000000000000000000000000000000000001000 ,
b100000000000000000000000000000000000000000000000000000000000000000000000000000000000000000000000000000000000000000000000000000001000 G
b100000000000000000000000000000000000000000000000000000000000000000000000000000000000000000000000000000000000000000000000000000001000 s
0|
b1100 [
b1000 y
b1 !
b1 P
b1 !"
1<
#48
0<
#50
b10 ""
b1111111000001000000010010011 x
b100000000000000000000000000000000000000000000000000000000000000000000000000000000000000000000000000000000000000000000000000000001000 ,
b100000000000000000000000000000000000000000000000000000000000000000000000000000000000000000000000000000000000000000000000000000001000 G
b100000000000000000000000000000000000000000000000000000000000000000000000000000000000000000000000000000000000000000000000000000001000 s
b1111 &
b1111 u
b1111 )#
b10 )
b10 t
b10 (#
1%
1(
1*
b1111111000001000000010010011 '
b1111111000001000000010010011 _
b1111111000001000000010010011 -#
b100 .#
1<
#52
0<
#54
1("
b0 -"
b11111110 ."
b0 h
b11111110 ,"
1i
b0 "
b0 M
b0 %"
b11111110 &"
1l
1;"
b0 k
b0 3"
b0 <"
1B"
1]
1x"
b0 \
b0 p"
b0 y"
b0 :"
b111 9"
b0 b
b0 ?"
b0 C"
b0 R"
b111 a
b111 D"
b111 Q"
b11110 T
b11110 M"
b11110 ]"
b0 w"
b111 v"
b11111110 ~
b11111110 v
b11 ""
b11111110 ,
b11111110 G
b11111110 s
b0 &
b0 u
b0 )#
b0 )
b0 t
b0 (#
0%
0(
b1111111000001000000010010011 #
b1111111000001000000010010011 L
b1111111000001000000010010011 $
b1111111000001000000010010011 K
b1111111000001000000010010011 J
b1111111000001000000010010011 2"
b1111111000001000000010010011 G"
b1111111000001000000010010011 o"
b1111111000001000000010010011 w
b10 !
b10 P
b10 !"
1*
b1111111000001000000010010011 '
b1111111000001000000010010011 _
b1111111000001000000010010011 -#
b100 .#
1<
#56
0<
#58
b100 ""
b1100000000000000000000000000000000000000000000000000000000000000000 *"
b1100000000000000000000000000000000000000000000000000000000000000000 +
b1100000000000000000000000000000000000000000000000000000000000000000 I
b1100000000000000000000000000000000000000000000000000000000000000000 H
b1000000000000000000000000000000000000000000000000000000000000000000000000000000000000000000000000000000000000000000000000000011111110 &"
b1000000000000000000000000000000000000000000000000000000000000000000000000000000000000000000000000000000000000000000000000000011111110 ,
b1000000000000000000000000000000000000000000000000000000000000000000000000000000000000000000000000000000000000000000000000000011111110 G
b1000000000000000000000000000000000000000000000000000000000000000000000000000000000000000000000000000000000000000000000000000011111110 s
b11 !
b11 P
b11 !"
0*
b0 '
b0 _
b0 -#
1<
#60
0<
#62
b1 ""
b1100 z
b1000000000000000000000000000000000000000000000000000000000000000000000000000000000000000000000000000000000000000000000000000011111110 ,
b1000000000000000000000000000000000000000000000000000000000000000000000000000000000000000000000000000000000000000000000000000011111110 G
b1000000000000000000000000000000000000000000000000000000000000000000000000000000000000000000000000000000000000000000000000000011111110 s
b100 !
b100 P
b100 !"
1<
#64
0<
#66
b0 *"
b0 +
b0 I
b0 H
b11111110 &"
b10000 #"
b11 )
b11 t
b11 (#
b1111 &
b1111 u
b1111 )#
1%
1(
b11111110 ,
b11111110 G
b11111110 s
b10000 [
b1100 y
b1 !
b1 P
b1 !"
1<
#68
0<
#70
b10 ""
b1111111100000000000100010011 x
b11111110 ,
b11111110 G
b11111110 s
b1111 &
b1111 u
b1111 )#
b11 )
b11 t
b11 (#
1%
1(
1*
b1111111100000000000100010011 '
b1111111100000000000100010011 _
b1111111100000000000100010011 -#
b100 .#
1<
#72
0<
#74
1("
b11111111 ."
b11111111 ,"
b11111111 &"
b0 V
b0 N"
b0 \"
b11111 T
b11111 M"
b11111 ]"
b10 X
b10 O"
b10 Z"
b11111111 ~
b11111111 v
b11 ""
b11111111 ,
b11111111 G
b11111111 s
b0 &
b0 u
b0 )#
b0 )
b0 t
b0 (#
0%
0(
b1111111100000000000100010011 #
b1111111100000000000100010011 L
b1111111100000000000100010011 $
b1111111100000000000100010011 K
b1111111100000000000100010011 J
b1111111100000000000100010011 2"
b1111111100000000000100010011 G"
b1111111100000000000100010011 o"
b1111111100000000000100010011 w
b10 !
b10 P
b10 !"
1*
b1111111100000000000100010011 '
b1111111100000000000100010011 _
b1111111100000000000100010011 -#
b100 .#
1<
#76
0<
#78
b100 ""
b1100000000000000000000000000000000000000000000000000000000000000000 *"
b1100000000000000000000000000000000000000000000000000000000000000000 +
b1100000000000000000000000000000000000000000000000000000000000000000 I
b1100000000000000000000000000000000000000000000000000000000000000000 H
b1000000000000000000000000000000000000000000000000000000000000000000000000000000000000000000000000000000000000000000000000000011111111 &"
b1000000000000000000000000000000000000000000000000000000000000000000000000000000000000000000000000000000000000000000000000000011111111 ,
b1000000000000000000000000000000000000000000000000000000000000000000000000000000000000000000000000000000000000000000000000000011111111 G
b1000000000000000000000000000000000000000000000000000000000000000000000000000000000000000000000000000000000000000000000000000011111111 s
b11 !
b11 P
b11 !"
0*
b0 '
b0 _
b0 -#
1<
#80
0<
#82
b1 ""
b10000 z
b1000000000000000000000000000000000000000000000000000000000000000000000000000000000000000000000000000000000000000000000000000011111111 ,
b1000000000000000000000000000000000000000000000000000000000000000000000000000000000000000000000000000000000000000000000000000011111111 G
b1000000000000000000000000000000000000000000000000000000000000000000000000000000000000000000000000000000000000000000000000000011111111 s
b100 !
b100 P
b100 !"
1<
#84
0<
#86
b0 *"
b0 +
b0 I
b0 H
b11111111 &"
b10100 #"
b100 )
b100 t
b100 (#
b1111 &
b1111 u
b1111 )#
1%
1(
b11111111 ,
b11111111 G
b11111111 s
b10100 [
b10000 y
b1 !
b1 P
b1 !"
1<
#88
0<
#90
b10 ""
b100010011000000100011 x
b11111111 ,
b11111111 G
b11111111 s
b1111 &
b1111 u
b1111 )#
b100 )
b100 t
b100 (#
1%
1(
1*
b100010011000000100011 '
b100010011000000100011 _
b100010011000000100011 -#
b100 .#
1<
#92
0<
#94
b10100 h
0i
b0 b"
1j
1A"
0B"
1l
1;"
b11 :"
b0 9"
b1 W
b1 J"
b1 V"
b10 ^
b10 F"
b10 T"
b10 O
b10 Q
b10 L"
b10 X"
b1 N
b1 R
b1 K"
b1 W"
b0 +
b0 I
b0 H
b10 -
b10 F
b10 `
b10 E"
b10 Y"
b11 b
b11 ?"
b11 C"
b11 R"
b0 a
b0 D"
b0 Q"
b10 V
b10 N"
b10 \"
b1 T
b1 M"
b1 ]"
b0 X
b0 O"
b0 Z"
1]
1x"
b11 w"
b0 v"
b0 ~
05"
b100011 8"
b100011 Z
b100011 H"
b100011 P"
0r"
b100011 u"
b0 v
b11 ""
b0 ,
b0 G
b0 s
b0 &
b0 u
b0 )#
b0 )
b0 t
b0 (#
0%
0(
b100010011000000100011 #
b100010011000000100011 L
b100010011000000100011 $
b100010011000000100011 K
b100010011000000100011 J
b100010011000000100011 2"
b100010011000000100011 G"
b100010011000000100011 o"
b100010011000000100011 w
b10 !
b10 P
b10 !"
1*
b100010011000000100011 '
b100010011000000100011 _
b100010011000000100011 -#
b100 .#
1<
#96
0<
#98
b100 ""
b1100000000000000000000000000000000000000000000000000000000000000000 l"
b1100000000000000000000000000000000000000000000000000000000000000000 +
b1100000000000000000000000000000000000000000000000000000000000000000 I
b1100000000000000000000000000000000000000000000000000000000000000000 H
1k"
1/
13
b1000000000000000000000000000000000000000000000000000000000000000000000000000000000000000000000000000000000000000000000000000000000000 b"
b1000000000000000000000000000000000000000000000000000000000000000000000000000000000000000000000000000000000000000000000000000000000000 ,
b1000000000000000000000000000000000000000000000000000000000000000000000000000000000000000000000000000000000000000000000000000000000000 G
b1000000000000000000000000000000000000000000000000000000000000000000000000000000000000000000000000000000000000000000000000000000000000 s
b11 !
b11 P
b11 !"
0*
b0 '
b0 _
b0 -#
1<
#100
0<
#102
b1 ""
b10100 z
b1000000000000000000000000000000000000000000000000000000000000000000000000000000000000000000000000000000000000000000000000000000000000 ,
b1000000000000000000000000000000000000000000000000000000000000000000000000000000000000000000000000000000000000000000000000000000000000 G
b1000000000000000000000000000000000000000000000000000000000000000000000000000000000000000000000000000000000000000000000000000000000000 s
b1100000000000000000000000000000000000000000000000000000000000000000 l"
b1100000000000000000000000000000000000000000000000000000000000000000 +
b1100000000000000000000000000000000000000000000000000000000000000000 I
b1100000000000000000000000000000000000000000000000000000000000000000 H
b100 !
b100 P
b100 !"
15
b1000 '#
1<
#104
0<
#106
0k"
0/
03
b0 b"
b11000 h
b11000 #"
b101 )
b101 t
b101 (#
b1111 &
b1111 u
b1111 )#
1%
1(
b0 ,
b0 G
b0 s
b0 l"
b0 +
b0 I
b0 H
b11000 [
b10100 y
b1 !
b1 P
b1 !"
15
b1000 '#
1<
#108
0<
